array_mem.vcd
$date
	Sat Sep  2 22:44:13 2023
$end
$version
	Icarus Verilog
$end
$timescale
	1s
$end
$scope module tb_array_mem $end
$var wire 16 ! read_data_B [15:0] $end
$var wire 16 " read_data_A [15:0] $end
$var reg 1 # clk $end
$var reg 1 $ en_A $end
$var reg 1 % en_B $end
$var reg 7 & read_addr_A [6:0] $end
$var reg 7 ' read_addr_B [6:0] $end
$scope module dut $end
$var wire 1 # clk $end
$var wire 1 $ en_A $end
$var wire 1 % en_B $end
$var wire 7 ( read_addr_A [6:0] $end
$var wire 7 ) read_addr_B [6:0] $end
$var reg 16 * read_data_A [15:0] $end
$var reg 16 + read_data_B [15:0] $end
$upscope $end
$upscope $end
$enddefinitions $end
#0
$dumpvars
bx +
bx *
b0 )
b0 (
b0 '
b0 &
1%
1$
0#
bx "
bx !
$end
#5
b1010 !
b1010 +
b0 "
b0 *
1#
#10
b1 &
b1 (
0#
#15
b101 "
b101 *
1#
#20
b10 &
b10 (
0#
#25
b100 "
b100 *
1#
#30
b11 &
b11 (
0#
#35
b110 "
b110 *
1#
#40
b100 &
b100 (
0#
#45
b1010 "
b1010 *
1#
#50
b101 &
b101 (
0#
#55
1#
#60
b110 &
b110 (
0#
#65
b1000 "
b1000 *
1#
#70
b111 &
b111 (
0#
#75
b1 "
b1 *
1#
#80
b1000 &
b1000 (
0#
#85
b1001 "
b1001 *
1#
#90
b1001 &
b1001 (
0#
#95
b1 "
b1 *
1#
#100
b1010 &
b1010 (
0#
#105
b1101 "
b1101 *
1#
#110
b1011 &
b1011 (
0#
#115
b1111 "
b1111 *
1#
#120
b1100 &
b1100 (
0#
#125
1#
#130
b1101 &
b1101 (
0#
#135
b1000 "
b1000 *
1#
#140
b1110 &
b1110 (
0#
#145
b111 "
b111 *
1#
#150
b1111 &
b1111 (
0#
#155
b101 "
b101 *
1#
#160
b10000 &
b10000 (
0#
#165
1#
#170
b10001 &
b10001 (
0#
#175
b1100 "
b1100 *
1#
#180
b1 '
b1 )
0#
#185
b101 !
b101 +
1#
#190
b10 '
b10 )
0#
#195
b1101 !
b1101 +
1#
#200
b11 '
b11 )
0#
#205
b10 !
b10 +
1#
#210
b100 '
b100 )
0#
#215
b111 !
b111 +
1#
#220
b101 '
b101 )
0#
#225
b10 !
b10 +
1#
#230
b110 '
b110 )
0#
#235
1#
#240
b111 '
b111 )
0#
#245
b1101 !
b1101 +
1#
#250
b1000 '
b1000 )
0#
#255
b0 !
b0 +
1#
#260
b1001 '
b1001 )
0#
#265
b1111 !
b1111 +
1#
#270
b1010 '
b1010 )
0#
#275
b111 !
b111 +
1#
#280
b1011 '
b1011 )
0#
#285
b1011 !
b1011 +
1#
#290
b1100 '
b1100 )
0#
#295
b111 !
b111 +
1#
#300
b1101 '
b1101 )
0#
#305
b1101 !
b1101 +
1#
#310
b1110 '
b1110 )
0#
#315
b1001 !
b1001 +
1#
#320
b1111 '
b1111 )
0#
#325
b1100 !
b1100 +
1#
#330
b10000 '
b10000 )
0#
#335
b101 !
b101 +
1#
#340
b10001 '
b10001 )
0#
#345
b1110 !
b1110 +
1#
