controller.vcd
$date
	Wed Sep  6 23:56:50 2023
$end
$version
	Icarus Verilog
$end
$timescale
	1s
$end
$scope module tb_controller $end
$var wire 1 ! done $end
$var reg 1 " clk $end
$var reg 1 # en $end
$scope module dut $end
$var wire 7 $ A_read_addr_0 [6:0] $end
$var wire 7 % A_read_addr_1 [6:0] $end
$var wire 7 & A_read_addr_2 [6:0] $end
$var wire 7 ' A_read_addr_3 [6:0] $end
$var wire 7 ( B_read_addr_0 [6:0] $end
$var wire 7 ) B_read_addr_1 [6:0] $end
$var wire 7 * B_read_addr_2 [6:0] $end
$var wire 7 + B_read_addr_3 [6:0] $end
$var wire 1 " clk $end
$var wire 1 # en $end
$var wire 4 , read_addr_C [3:0] $end
$var wire 1 - w_en_A $end
$var wire 1 . w_en_B $end
$var wire 7 / write_addr_A [6:0] $end
$var wire 7 0 write_addr_B [6:0] $end
$var wire 16 1 write_data_A [15:0] $end
$var wire 16 2 write_data_B [15:0] $end
$var wire 33 3 read_data_C [32:0] $end
$var wire 16 4 out_dB_32 [15:0] $end
$var wire 16 5 out_dB_31 [15:0] $end
$var wire 16 6 out_dB_30 [15:0] $end
$var wire 16 7 out_dB_21 [15:0] $end
$var wire 16 8 out_dB_20 [15:0] $end
$var wire 16 9 out_dB_1 [15:0] $end
$var wire 16 : out_dA_32 [15:0] $end
$var wire 16 ; out_dA_31 [15:0] $end
$var wire 16 < out_dA_30 [15:0] $end
$var wire 16 = out_dA_21 [15:0] $end
$var wire 16 > out_dA_20 [15:0] $end
$var wire 16 ? out_dA_1 [15:0] $end
$var wire 5 @ instruction [4:0] $end
$var wire 16 A in_dB_30 [15:0] $end
$var wire 16 B in_dB_20 [15:0] $end
$var wire 16 C in_dB_1 [15:0] $end
$var wire 16 D in_dA_30 [15:0] $end
$var wire 16 E in_dA_20 [15:0] $end
$var wire 16 F in_dA_1 [15:0] $end
$var wire 33 G c33 [32:0] $end
$var wire 33 H c32 [32:0] $end
$var wire 33 I c31 [32:0] $end
$var wire 33 J c30 [32:0] $end
$var wire 33 K c23 [32:0] $end
$var wire 33 L c22 [32:0] $end
$var wire 33 M c21 [32:0] $end
$var wire 33 N c20 [32:0] $end
$var wire 33 O c13 [32:0] $end
$var wire 33 P c12 [32:0] $end
$var wire 33 Q c11 [32:0] $end
$var wire 33 R c10 [32:0] $end
$var wire 33 S c03 [32:0] $end
$var wire 33 T c02 [32:0] $end
$var wire 33 U c01 [32:0] $end
$var wire 33 V c00 [32:0] $end
$var wire 16 W b33 [15:0] $end
$var wire 16 X b32 [15:0] $end
$var wire 16 Y b31 [15:0] $end
$var wire 16 Z b30 [15:0] $end
$var wire 16 [ b23 [15:0] $end
$var wire 16 \ b22 [15:0] $end
$var wire 16 ] b21 [15:0] $end
$var wire 16 ^ b20 [15:0] $end
$var wire 16 _ b13 [15:0] $end
$var wire 16 ` b12 [15:0] $end
$var wire 16 a b11 [15:0] $end
$var wire 16 b b10 [15:0] $end
$var wire 16 c b03 [15:0] $end
$var wire 16 d b02 [15:0] $end
$var wire 16 e b01 [15:0] $end
$var wire 16 f b00 [15:0] $end
$var wire 16 g a33 [15:0] $end
$var wire 16 h a32 [15:0] $end
$var wire 16 i a31 [15:0] $end
$var wire 16 j a30 [15:0] $end
$var wire 16 k a23 [15:0] $end
$var wire 16 l a22 [15:0] $end
$var wire 16 m a21 [15:0] $end
$var wire 16 n a20 [15:0] $end
$var wire 16 o a13 [15:0] $end
$var wire 16 p a12 [15:0] $end
$var wire 16 q a11 [15:0] $end
$var wire 16 r a10 [15:0] $end
$var wire 16 s a03 [15:0] $end
$var wire 16 t a02 [15:0] $end
$var wire 16 u a01 [15:0] $end
$var wire 16 v a00 [15:0] $end
$var wire 16 w B_read_data_0 [15:0] $end
$var wire 16 x A_read_data_0 [15:0] $end
$var reg 4 y PC [3:0] $end
$var reg 7 z add_offset [6:0] $end
$var reg 7 { base_offset [6:0] $end
$var reg 7 | col_addr_0 [6:0] $end
$var reg 7 } col_addr_1 [6:0] $end
$var reg 7 ~ col_addr_2 [6:0] $end
$var reg 7 !" col_addr_3 [6:0] $end
$var reg 7 "" counter [6:0] $end
$var reg 7 #" counter_limit [6:0] $end
$var reg 1 ! done $end
$var reg 1 $" is_completed_transfer $end
$var reg 1 %" is_started_transfer $end
$var reg 7 &" offset [6:0] $end
$var reg 1 '" p_en0 $end
$var reg 1 (" p_en1 $end
$var reg 1 )" p_en2 $end
$var reg 1 *" p_en3 $end
$var reg 1 +" p_en4 $end
$var reg 1 ," p_en5 $end
$var reg 1 -" p_en6 $end
$var reg 1 ." r_en_A $end
$var reg 1 /" r_en_B $end
$var reg 7 0" row_addr_0 [6:0] $end
$var reg 7 1" row_addr_1 [6:0] $end
$var reg 7 2" row_addr_2 [6:0] $end
$var reg 7 3" row_addr_3 [6:0] $end
$var reg 1 4" rst $end
$var reg 1 5" w_en_C $end
$scope module IM $end
$var wire 1 " clk $end
$var wire 4 6" read_addr [3:0] $end
$var reg 5 7" read_data [4:0] $end
$upscope $end
$scope module dA_1 $end
$var wire 1 " clk $end
$var wire 16 8" in [15:0] $end
$var reg 16 9" out [15:0] $end
$upscope $end
$scope module dA_20 $end
$var wire 1 " clk $end
$var wire 16 :" in [15:0] $end
$var reg 16 ;" out [15:0] $end
$upscope $end
$scope module dA_21 $end
$var wire 1 " clk $end
$var wire 16 <" in [15:0] $end
$var reg 16 =" out [15:0] $end
$upscope $end
$scope module dA_30 $end
$var wire 1 " clk $end
$var wire 16 >" in [15:0] $end
$var reg 16 ?" out [15:0] $end
$upscope $end
$scope module dA_31 $end
$var wire 1 " clk $end
$var wire 16 @" in [15:0] $end
$var reg 16 A" out [15:0] $end
$upscope $end
$scope module dA_32 $end
$var wire 1 " clk $end
$var wire 16 B" in [15:0] $end
$var reg 16 C" out [15:0] $end
$upscope $end
$scope module dB_1 $end
$var wire 1 " clk $end
$var wire 16 D" in [15:0] $end
$var reg 16 E" out [15:0] $end
$upscope $end
$scope module dB_20 $end
$var wire 1 " clk $end
$var wire 16 F" in [15:0] $end
$var reg 16 G" out [15:0] $end
$upscope $end
$scope module dB_21 $end
$var wire 1 " clk $end
$var wire 16 H" in [15:0] $end
$var reg 16 I" out [15:0] $end
$upscope $end
$scope module dB_30 $end
$var wire 1 " clk $end
$var wire 16 J" in [15:0] $end
$var reg 16 K" out [15:0] $end
$upscope $end
$scope module dB_31 $end
$var wire 1 " clk $end
$var wire 16 L" in [15:0] $end
$var reg 16 M" out [15:0] $end
$upscope $end
$scope module dB_32 $end
$var wire 1 " clk $end
$var wire 16 N" in [15:0] $end
$var reg 16 O" out [15:0] $end
$upscope $end
$scope module mem_A $end
$var wire 1 " clk $end
$var wire 1 ." r_en $end
$var wire 7 P" read_addr_0 [6:0] $end
$var wire 7 Q" read_addr_1 [6:0] $end
$var wire 7 R" read_addr_2 [6:0] $end
$var wire 7 S" read_addr_3 [6:0] $end
$var wire 1 - w_en $end
$var wire 7 T" write_addr [6:0] $end
$var wire 16 U" write_data [15:0] $end
$var reg 16 V" read_data_0 [15:0] $end
$var reg 16 W" read_data_1 [15:0] $end
$var reg 16 X" read_data_2 [15:0] $end
$var reg 16 Y" read_data_3 [15:0] $end
$upscope $end
$scope module mem_B $end
$var wire 1 " clk $end
$var wire 1 /" r_en $end
$var wire 7 Z" read_addr_0 [6:0] $end
$var wire 7 [" read_addr_1 [6:0] $end
$var wire 7 \" read_addr_2 [6:0] $end
$var wire 7 ]" read_addr_3 [6:0] $end
$var wire 1 . w_en $end
$var wire 7 ^" write_addr [6:0] $end
$var wire 16 _" write_data [15:0] $end
$var reg 16 `" read_data_0 [15:0] $end
$var reg 16 a" read_data_1 [15:0] $end
$var reg 16 b" read_data_2 [15:0] $end
$var reg 16 c" read_data_3 [15:0] $end
$upscope $end
$scope module mem_C $end
$var wire 1 " clk $end
$var wire 4 d" read_addr [3:0] $end
$var wire 1 e" rst $end
$var wire 1 5" w_en $end
$var wire 33 f" c33 [32:0] $end
$var wire 33 g" c32 [32:0] $end
$var wire 33 h" c31 [32:0] $end
$var wire 33 i" c30 [32:0] $end
$var wire 33 j" c23 [32:0] $end
$var wire 33 k" c22 [32:0] $end
$var wire 33 l" c21 [32:0] $end
$var wire 33 m" c20 [32:0] $end
$var wire 33 n" c13 [32:0] $end
$var wire 33 o" c12 [32:0] $end
$var wire 33 p" c11 [32:0] $end
$var wire 33 q" c10 [32:0] $end
$var wire 33 r" c03 [32:0] $end
$var wire 33 s" c02 [32:0] $end
$var wire 33 t" c01 [32:0] $end
$var wire 33 u" c00 [32:0] $end
$var reg 1 v" print $end
$var reg 33 w" read_data [32:0] $end
$upscope $end
$scope module pe00 $end
$var wire 16 x" A [15:0] $end
$var wire 16 y" B [15:0] $end
$var wire 1 " clk $end
$var wire 1 '" en $end
$var wire 1 4" rst $end
$var reg 16 z" A_out [15:0] $end
$var reg 16 {" B_out [15:0] $end
$var reg 33 |" C_out [32:0] $end
$var reg 33 }" out_mem [32:0] $end
$upscope $end
$scope module pe01 $end
$var wire 16 ~" A [15:0] $end
$var wire 16 !# B [15:0] $end
$var wire 1 " clk $end
$var wire 1 (" en $end
$var wire 1 4" rst $end
$var reg 16 "# A_out [15:0] $end
$var reg 16 ## B_out [15:0] $end
$var reg 33 $# C_out [32:0] $end
$var reg 33 %# out_mem [32:0] $end
$upscope $end
$scope module pe02 $end
$var wire 16 &# A [15:0] $end
$var wire 16 '# B [15:0] $end
$var wire 1 " clk $end
$var wire 1 )" en $end
$var wire 1 4" rst $end
$var reg 16 (# A_out [15:0] $end
$var reg 16 )# B_out [15:0] $end
$var reg 33 *# C_out [32:0] $end
$var reg 33 +# out_mem [32:0] $end
$upscope $end
$scope module pe03 $end
$var wire 16 ,# A [15:0] $end
$var wire 16 -# B [15:0] $end
$var wire 1 " clk $end
$var wire 1 *" en $end
$var wire 1 4" rst $end
$var reg 16 .# A_out [15:0] $end
$var reg 16 /# B_out [15:0] $end
$var reg 33 0# C_out [32:0] $end
$var reg 33 1# out_mem [32:0] $end
$upscope $end
$scope module pe10 $end
$var wire 16 2# A [15:0] $end
$var wire 16 3# B [15:0] $end
$var wire 1 " clk $end
$var wire 1 (" en $end
$var wire 1 4" rst $end
$var reg 16 4# A_out [15:0] $end
$var reg 16 5# B_out [15:0] $end
$var reg 33 6# C_out [32:0] $end
$var reg 33 7# out_mem [32:0] $end
$upscope $end
$scope module pe11 $end
$var wire 16 8# A [15:0] $end
$var wire 16 9# B [15:0] $end
$var wire 1 " clk $end
$var wire 1 )" en $end
$var wire 1 4" rst $end
$var reg 16 :# A_out [15:0] $end
$var reg 16 ;# B_out [15:0] $end
$var reg 33 <# C_out [32:0] $end
$var reg 33 =# out_mem [32:0] $end
$upscope $end
$scope module pe12 $end
$var wire 16 ># A [15:0] $end
$var wire 16 ?# B [15:0] $end
$var wire 1 " clk $end
$var wire 1 *" en $end
$var wire 1 4" rst $end
$var reg 16 @# A_out [15:0] $end
$var reg 16 A# B_out [15:0] $end
$var reg 33 B# C_out [32:0] $end
$var reg 33 C# out_mem [32:0] $end
$upscope $end
$scope module pe13 $end
$var wire 16 D# A [15:0] $end
$var wire 16 E# B [15:0] $end
$var wire 1 " clk $end
$var wire 1 +" en $end
$var wire 1 4" rst $end
$var reg 16 F# A_out [15:0] $end
$var reg 16 G# B_out [15:0] $end
$var reg 33 H# C_out [32:0] $end
$var reg 33 I# out_mem [32:0] $end
$upscope $end
$scope module pe20 $end
$var wire 16 J# A [15:0] $end
$var wire 16 K# B [15:0] $end
$var wire 1 " clk $end
$var wire 1 )" en $end
$var wire 1 4" rst $end
$var reg 16 L# A_out [15:0] $end
$var reg 16 M# B_out [15:0] $end
$var reg 33 N# C_out [32:0] $end
$var reg 33 O# out_mem [32:0] $end
$upscope $end
$scope module pe21 $end
$var wire 16 P# A [15:0] $end
$var wire 16 Q# B [15:0] $end
$var wire 1 " clk $end
$var wire 1 *" en $end
$var wire 1 4" rst $end
$var reg 16 R# A_out [15:0] $end
$var reg 16 S# B_out [15:0] $end
$var reg 33 T# C_out [32:0] $end
$var reg 33 U# out_mem [32:0] $end
$upscope $end
$scope module pe22 $end
$var wire 16 V# A [15:0] $end
$var wire 16 W# B [15:0] $end
$var wire 1 " clk $end
$var wire 1 +" en $end
$var wire 1 4" rst $end
$var reg 16 X# A_out [15:0] $end
$var reg 16 Y# B_out [15:0] $end
$var reg 33 Z# C_out [32:0] $end
$var reg 33 [# out_mem [32:0] $end
$upscope $end
$scope module pe23 $end
$var wire 16 \# A [15:0] $end
$var wire 16 ]# B [15:0] $end
$var wire 1 " clk $end
$var wire 1 ," en $end
$var wire 1 4" rst $end
$var reg 16 ^# A_out [15:0] $end
$var reg 16 _# B_out [15:0] $end
$var reg 33 `# C_out [32:0] $end
$var reg 33 a# out_mem [32:0] $end
$upscope $end
$scope module pe30 $end
$var wire 16 b# A [15:0] $end
$var wire 16 c# B [15:0] $end
$var wire 1 " clk $end
$var wire 1 *" en $end
$var wire 1 4" rst $end
$var reg 16 d# A_out [15:0] $end
$var reg 16 e# B_out [15:0] $end
$var reg 33 f# C_out [32:0] $end
$var reg 33 g# out_mem [32:0] $end
$upscope $end
$scope module pe31 $end
$var wire 16 h# A [15:0] $end
$var wire 16 i# B [15:0] $end
$var wire 1 " clk $end
$var wire 1 +" en $end
$var wire 1 4" rst $end
$var reg 16 j# A_out [15:0] $end
$var reg 16 k# B_out [15:0] $end
$var reg 33 l# C_out [32:0] $end
$var reg 33 m# out_mem [32:0] $end
$upscope $end
$scope module pe32 $end
$var wire 16 n# A [15:0] $end
$var wire 16 o# B [15:0] $end
$var wire 1 " clk $end
$var wire 1 ," en $end
$var wire 1 4" rst $end
$var reg 16 p# A_out [15:0] $end
$var reg 16 q# B_out [15:0] $end
$var reg 33 r# C_out [32:0] $end
$var reg 33 s# out_mem [32:0] $end
$upscope $end
$scope module pe33 $end
$var wire 16 t# A [15:0] $end
$var wire 16 u# B [15:0] $end
$var wire 1 " clk $end
$var wire 1 -" en $end
$var wire 1 4" rst $end
$var reg 16 v# A_out [15:0] $end
$var reg 16 w# B_out [15:0] $end
$var reg 33 x# C_out [32:0] $end
$var reg 33 y# out_mem [32:0] $end
$upscope $end
$upscope $end
$upscope $end
$enddefinitions $end
#0
$dumpvars
b0 y#
b0 x#
b0 w#
b0 v#
b0 u#
b0 t#
b0 s#
b0 r#
b0 q#
b0 p#
b0 o#
b0 n#
b0 m#
b0 l#
b0 k#
b0 j#
b0 i#
b0 h#
b0 g#
b0 f#
b0 e#
b0 d#
b0 c#
bx b#
b0 a#
b0 `#
b0 _#
b0 ^#
b0 ]#
b0 \#
b0 [#
b0 Z#
b0 Y#
b0 X#
b0 W#
b0 V#
b0 U#
b0 T#
b0 S#
b0 R#
b0 Q#
b0 P#
b0 O#
b0 N#
b0 M#
b0 L#
b0 K#
bx J#
b0 I#
b0 H#
b0 G#
b0 F#
b0 E#
b0 D#
b0 C#
b0 B#
b0 A#
b0 @#
b0 ?#
b0 >#
b0 =#
b0 <#
b0 ;#
b0 :#
b0 9#
b0 8#
b0 7#
b0 6#
b0 5#
b0 4#
b0 3#
bx 2#
b0 1#
b0 0#
b0 /#
b0 .#
bx -#
b0 ,#
b0 +#
b0 *#
b0 )#
b0 (#
bx '#
b0 &#
b0 %#
b0 $#
b0 ##
b0 "#
bx !#
b0 ~"
b0 }"
b0 |"
b0 {"
b0 z"
bx y"
bx x"
bx w"
0v"
b0 u"
b0 t"
b0 s"
b0 r"
b0 q"
b0 p"
b0 o"
b0 n"
b0 m"
b0 l"
b0 k"
b0 j"
b0 i"
b0 h"
b0 g"
b0 f"
ze"
bz d"
bx c"
bx b"
bx a"
bx `"
bz _"
bz ^"
bx ]"
bx \"
bx ["
bx Z"
bx Y"
bx X"
bx W"
bx V"
bz U"
bz T"
bx S"
bx R"
bx Q"
bx P"
bx O"
bx N"
bx M"
bx L"
bx K"
bx J"
bx I"
bx H"
bx G"
bx F"
bx E"
bx D"
bx C"
bx B"
bx A"
bx @"
bx ?"
bx >"
bx ="
bx <"
bx ;"
bx :"
bx 9"
bx 8"
bx 7"
b0 6"
x5"
x4"
bx 3"
bx 2"
bx 1"
bx 0"
0/"
0."
x-"
x,"
x+"
x*"
x)"
x("
x'"
bx &"
0%"
0$"
bx #"
b1111111 ""
bx !"
bx ~
bx }
bx |
b0 {
b0 z
b0 y
bx x
bx w
b0 v
b0 u
b0 t
b0 s
b0 r
b0 q
b0 p
b0 o
b0 n
b0 m
b0 l
b0 k
b0 j
b0 i
b0 h
b0 g
b0 f
b0 e
b0 d
b0 c
b0 b
b0 a
b0 `
b0 _
b0 ^
b0 ]
b0 \
b0 [
b0 Z
b0 Y
b0 X
b0 W
b0 V
b0 U
b0 T
b0 S
b0 R
b0 Q
b0 P
b0 O
b0 N
b0 M
b0 L
b0 K
b0 J
b0 I
b0 H
b0 G
bx F
bx E
bx D
bx C
bx B
bx A
bx @
bx ?
bx >
bx =
bx <
bx ;
bx :
bx 9
bx 8
bx 7
bx 6
bx 5
bx 4
bx 3
bz 2
bz 1
bz 0
bz /
z.
z-
bz ,
bx +
bx *
bx )
bx (
bx '
bx &
bx %
bx $
x#
0"
x!
$end
#5
b100 @
b100 7"
1"
#10
1#
0"
#15
b1011 +
b1011 ]"
b1011 !"
b111 *
b111 \"
b111 ~
b11 )
b11 ["
b11 }
b1111111 (
b1111111 Z"
b1111111 |
b1011 '
b1011 S"
b1011 3"
b111 &
b111 R"
b111 2"
b11 %
b11 Q"
b11 1"
b1111111 $
b1111111 P"
b1111111 0"
b0 ""
1/"
1."
1%"
b1100 #"
b100 &"
1"
#20
0"
#25
b1010 D
b1010 >"
b1010 Y"
b110 E
b110 :"
b110 X"
b1010 F
b1010 8"
b1010 W"
b110 A
b110 J"
b110 c"
b1101 B
b1101 F"
b1101 b"
b1000 C
b1000 D"
b1000 a"
b1100 +
b1100 ]"
b1100 !"
b1000 *
b1000 \"
b1000 ~
b100 )
b100 ["
b100 }
b0 (
b0 Z"
b0 |
b1100 '
b1100 S"
b1100 3"
b1000 &
b1000 R"
b1000 2"
b100 %
b100 Q"
b100 1"
b0 $
b0 P"
b0 0"
04"
b1 ""
05"
1"
#30
0"
#35
b1101 +
b1101 ]"
b1101 !"
b1001 *
b1001 \"
b1001 ~
b101 )
b101 ["
b101 }
b1 (
b1 Z"
b1 |
b1101 '
b1101 S"
b1101 3"
b1001 &
b1001 R"
b1001 2"
b101 %
b101 Q"
b101 1"
b1 $
b1 P"
b1 0"
1'"
b10 ""
b1010 A
b1010 J"
b1010 c"
b1000 B
b1000 F"
b1000 b"
b1011 C
b1011 D"
b1011 a"
b1000 w
b1000 `"
b1000 y"
b1000 D
b1000 >"
b1000 Y"
b1001 E
b1001 :"
b1001 X"
b1011 F
b1011 8"
b1011 W"
b1 x
b1 V"
b1 x"
b110 6
b110 K"
b110 L"
b1101 8
b1101 G"
b1101 H"
b1000 9
b1000 E"
b1000 !#
b1010 <
b1010 ?"
b1010 @"
b110 >
b110 ;"
b110 <"
b1010 ?
b1010 9"
b1010 2#
1"
#40
0"
#45
b1011 ?
b1011 9"
b1011 2#
b1001 >
b1001 ;"
b1001 <"
b110 =
b110 ="
b110 J#
b1000 <
b1000 ?"
b1000 @"
b1010 ;
b1010 A"
b1010 B"
b1011 9
b1011 E"
b1011 !#
b1000 8
b1000 G"
b1000 H"
b1101 7
b1101 I"
b1101 '#
b1010 6
b1010 K"
b1010 L"
b110 5
b110 M"
b110 N"
b0 D
b0 >"
b0 Y"
b111 E
b111 :"
b111 X"
b10 F
b10 8"
b10 W"
b110 x
b110 V"
b110 x"
b1111 A
b1111 J"
b1111 c"
b10 B
b10 F"
b10 b"
b1111 C
b1111 D"
b1111 a"
b101 w
b101 `"
b101 y"
b1000 f
b1000 {"
b1000 3#
b1 v
b1 z"
b1 ~"
b1000 }"
b1110 +
b1110 ]"
b1110 !"
b1010 *
b1010 \"
b1010 ~
b110 )
b110 ["
b110 }
b10 (
b10 Z"
b10 |
b1110 '
b1110 S"
b1110 3"
b1010 &
b1010 R"
b1010 2"
b110 %
b110 Q"
b110 1"
b10 $
b10 P"
b10 0"
1("
b11 ""
1"
#50
0"
#55
b1111 +
b1111 ]"
b1111 !"
b1011 *
b1011 \"
b1011 ~
b111 )
b111 ["
b111 }
b11 (
b11 Z"
b11 |
b1111 '
b1111 S"
b1111 3"
b1011 &
b1011 R"
b1011 2"
b111 %
b111 Q"
b111 1"
b11 $
b11 P"
b11 0"
b10000 z
1$"
1)"
b100 ""
b1000 b
b1000 5#
b1000 K#
b1011 r
b1011 4#
b1011 8#
b1011000 7#
b1011 e
b1011 ##
b1011 9#
b1 u
b1 "#
b1 &#
b1011 %#
b1000 V
b1000 u"
b1000 |"
b101 f
b101 {"
b101 3#
b110 v
b110 z"
b110 ~"
b100110 }"
b1110 A
b1110 J"
b1110 c"
b1010 B
b1010 F"
b1010 b"
b1010 C
b1010 D"
b1010 a"
b110 w
b110 `"
b110 y"
b11 D
b11 >"
b11 Y"
b10 E
b10 :"
b10 X"
b11 F
b11 8"
b11 W"
b1101 x
b1101 V"
b1101 x"
b110 4
b110 O"
b110 -#
b1010 5
b1010 M"
b1010 N"
b1111 6
b1111 K"
b1111 L"
b1000 7
b1000 I"
b1000 '#
b10 8
b10 G"
b10 H"
b1111 9
b1111 E"
b1111 !#
b1010 :
b1010 C"
b1010 b#
b1000 ;
b1000 A"
b1000 B"
b0 <
b0 ?"
b0 @"
b1001 =
b1001 ="
b1001 J#
b111 >
b111 ;"
b111 <"
b10 ?
b10 9"
b10 2#
1"
#60
0"
#65
b11 ?
b11 9"
b11 2#
b10 >
b10 ;"
b10 <"
b111 =
b111 ="
b111 J#
b11 <
b11 ?"
b11 @"
b0 ;
b0 A"
b0 B"
b1000 :
b1000 C"
b1000 b#
b1010 9
b1010 E"
b1010 !#
b1010 8
b1010 G"
b1010 H"
b10 7
b10 I"
b10 '#
b1110 6
b1110 K"
b1110 L"
b1111 5
b1111 M"
b1111 N"
b1010 4
b1010 O"
b1010 -#
b1010 D
b1010 >"
b1010 Y"
b1010 E
b1010 :"
b1010 X"
b110 F
b110 8"
b110 W"
b1010 x
b1010 V"
b1010 x"
b11 A
b11 J"
b11 c"
b110 B
b110 F"
b110 b"
b1101 C
b1101 D"
b1101 a"
b1000 w
b1000 `"
b1000 y"
b100110 V
b100110 u"
b100110 |"
b110 f
b110 {"
b110 3#
b1101 v
b1101 z"
b1101 ~"
b1110100 }"
b1011 U
b1011 t"
b1011 $#
b1111 e
b1111 ##
b1111 9#
b110 u
b110 "#
b110 &#
b1100101 %#
b1000 d
b1000 )#
b1000 ?#
b1 t
b1 (#
b1 ,#
b1000 +#
b1011000 R
b1011000 q"
b1011000 6#
b101 b
b101 5#
b101 K#
b10 r
b10 4#
b10 8#
b1100010 7#
b1011 a
b1011 ;#
b1011 Q#
b1011 q
b1011 :#
b1011 >#
b1111001 =#
b1000 ^
b1000 M#
b1000 c#
b1001 n
b1001 L#
b1001 P#
b1001000 O#
b1111111 +
b1111111 ]"
b1111111 !"
b1111111 *
b1111111 \"
b1111111 ~
b1111111 )
b1111111 ["
b1111111 }
b1111111 (
b1111111 Z"
b1111111 |
b1111111 '
b1111111 S"
b1111111 3"
b1111111 &
b1111111 R"
b1111111 2"
b1111111 %
b1111111 Q"
b1111111 1"
b1111111 $
b1111111 P"
b1111111 0"
1*"
b101 ""
1"
#70
0"
#75
1+"
b110 ""
b1000 Z
b1000 e#
b1000 j
b1000 d#
b1000 h#
b1000000 g#
b1011 ]
b1011 S#
b1011 i#
b1001 m
b1001 R#
b1001 V#
b1100011 U#
b1001000 N
b1001000 m"
b1001000 N#
b101 ^
b101 M#
b101 c#
b111 n
b111 L#
b111 P#
b1101011 O#
b1000 `
b1000 A#
b1000 W#
b1011 p
b1011 @#
b1011 D#
b1011000 C#
b1111001 Q
b1111001 p"
b1111001 <#
b1111 a
b1111 ;#
b1111 Q#
b10 q
b10 :#
b10 >#
b10010111 =#
b1100010 R
b1100010 q"
b1100010 6#
b110 b
b110 5#
b110 K#
b11 r
b11 4#
b11 8#
b1110100 7#
b1010 c
b1010 /#
b1010 E#
b1 s
b1 .#
b1010 1#
b1000 T
b1000 s"
b1000 *#
b10 d
b10 )#
b10 ?#
b110 t
b110 (#
b110 ,#
b10100 +#
b1100101 U
b1100101 t"
b1100101 $#
b1010 e
b1010 ##
b1010 9#
b1101 u
b1101 "#
b1101 &#
b11100111 %#
b1110100 V
b1110100 u"
b1110100 |"
b1000 f
b1000 {"
b1000 3#
b1010 v
b1010 z"
b1010 ~"
b11000100 }"
bx A
bx J"
bx c"
bx B
bx F"
bx b"
bx C
bx D"
bx a"
bx w
bx `"
bx y"
bx D
bx >"
bx Y"
bx E
bx :"
bx X"
bx F
bx 8"
bx W"
bx x
bx V"
bx x"
b1111 4
b1111 O"
b1111 -#
b1110 5
b1110 M"
b1110 N"
b11 6
b11 K"
b11 L"
b1010 7
b1010 I"
b1010 '#
b110 8
b110 G"
b110 H"
b1101 9
b1101 E"
b1101 !#
b0 :
b0 C"
b0 b#
b11 ;
b11 A"
b11 B"
b1010 <
b1010 ?"
b1010 @"
b10 =
b10 ="
b10 J#
b1010 >
b1010 ;"
b1010 <"
b110 ?
b110 9"
b110 2#
1"
#80
0"
#85
bx ?
bx 9"
bx 2#
bx >
bx ;"
bx <"
b1010 =
b1010 ="
b1010 J#
bx <
bx ?"
bx @"
b1010 ;
b1010 A"
b1010 B"
b11 :
b11 C"
b11 b#
bx 9
bx E"
bx !#
bx 8
bx G"
bx H"
b110 7
b110 I"
b110 '#
bx 6
bx K"
bx L"
b11 5
b11 M"
b11 N"
b1110 4
b1110 O"
b1110 -#
b11000100 V
b11000100 u"
b11000100 |"
bx f
bx {"
bx 3#
bx v
bx z"
bx ~"
bx }"
b11100111 U
b11100111 t"
b11100111 $#
b1101 e
b1101 ##
b1101 9#
b1010 u
b1010 "#
b1010 &#
b101101001 %#
b10100 T
b10100 s"
b10100 *#
b1010 d
b1010 )#
b1010 ?#
b1101 t
b1101 (#
b1101 ,#
b10010110 +#
b1010 S
b1010 r"
b1010 0#
b1111 c
b1111 /#
b1111 E#
b110 s
b110 .#
b1100100 1#
b1110100 R
b1110100 q"
b1110100 6#
b1000 b
b1000 5#
b1000 K#
b110 r
b110 4#
b110 8#
b10100100 7#
b10010111 Q
b10010111 p"
b10010111 <#
b1010 a
b1010 ;#
b1010 Q#
b11 q
b11 :#
b11 >#
b10110101 =#
b1011000 P
b1011000 o"
b1011000 B#
b10 `
b10 A#
b10 W#
b10 p
b10 @#
b10 D#
b1011100 C#
b1010 _
b1010 G#
b1010 ]#
b1011 o
b1011 F#
b1101110 I#
b1101011 N
b1101011 m"
b1101011 N#
b110 ^
b110 M#
b110 c#
b10 n
b10 L#
b10 P#
b1110111 O#
b1100011 M
b1100011 l"
b1100011 T#
b1111 ]
b1111 S#
b1111 i#
b111 m
b111 R#
b111 V#
b11001100 U#
b1000 \
b1000 Y#
b1000 o#
b1001 l
b1001 X#
b1001 \#
b1001000 [#
b1000000 J
b1000000 i"
b1000000 f#
b101 Z
b101 e#
b0 j
b0 d#
b0 h#
b1011 Y
b1011 k#
b1000 i
b1000 j#
b1000 n#
b1011000 m#
0'"
1,"
b111 ""
1"
#90
0"
#95
0("
1-"
b1000 ""
b1000 X
b1000 q#
b1000 h
b1000 p#
b1000 t#
b1000000 s#
b1011000 I
b1011000 h"
b1011000 l#
b1111 Y
b1111 k#
b0 i
b0 j#
b0 n#
b110 Z
b110 e#
b11 j
b11 d#
b11 h#
b1010010 g#
b1010 [
b1010 _#
b1010 u#
b1001 k
b1001 ^#
b1011010 a#
b1001000 L
b1001000 k"
b1001000 Z#
b10 \
b10 Y#
b10 o#
b111 l
b111 X#
b111 \#
b1010110 [#
b11001100 M
b11001100 l"
b11001100 T#
b1010 ]
b1010 S#
b1010 i#
b10 m
b10 R#
b10 V#
b11100000 U#
b1110111 N
b1110111 m"
b1110111 N#
b1000 ^
b1000 M#
b1000 c#
b1010 n
b1010 L#
b1010 P#
b11000111 O#
b1101110 O
b1101110 n"
b1101110 H#
b1111 _
b1111 G#
b1111 ]#
b10 o
b10 F#
b10001100 I#
b1011100 P
b1011100 o"
b1011100 B#
b1010 `
b1010 A#
b1010 W#
b11 p
b11 @#
b11 D#
b1111010 C#
b10110101 Q
b10110101 p"
b10110101 <#
b1101 a
b1101 ;#
b1101 Q#
b110 q
b110 :#
b110 >#
b100000011 =#
b10100100 R
b10100100 q"
b10100100 6#
bx b
bx 5#
bx K#
bx r
bx 4#
bx 8#
bx 7#
b1100100 S
b1100100 r"
b1100100 0#
b1110 c
b1110 /#
b1110 E#
b1101 s
b1101 .#
b100011010 1#
b10010110 T
b10010110 s"
b10010110 *#
b110 d
b110 )#
b110 ?#
b1010 t
b1010 (#
b1010 ,#
b11010010 +#
b101101001 U
b101101001 t"
b101101001 $#
bx e
bx ##
bx 9#
bx u
bx "#
bx &#
bx %#
b11 4
b11 O"
b11 -#
bx 5
bx M"
bx N"
bx 7
bx I"
bx '#
b1010 :
b1010 C"
b1010 b#
bx ;
bx A"
bx B"
bx =
bx ="
bx J#
1"
#100
0"
